Demonstration of pivot_redcap_table function
…
Field types

REDCap fields type of text, drop-down or singe choice represented by one column and their value contains text, code or label of the answer option. In these example it is: “learner_type”,“grad_year”, “num”, “hours”, “content”.

“Eval_type” field is a pseudo multiple choice question in redcap, that is being transformed to a simple and easy for manimulation format. Each output column corresponds with one answer option checkbox.

result

# A tibble: 312 × 16
   record_id redcap_event_name index learner_type grad_year   num hours content
       <int> <chr>             <chr>        <dbl>     <dbl> <dbl> <dbl>   <dbl>
 1         2 followup_2025     1               NA        NA    NA    NA      NA
 2         2 followup_2025     2               NA        NA    NA    NA      NA
 3         2 followup_2025     3               NA        NA    NA    NA      NA
 4         2 followup_2025     4               NA        NA    NA    NA      NA
 5         2 followup_2025     5               NA        NA    NA    NA      NA
 6         2 followup_2025     6               NA        NA    NA    NA      NA
 7         2 followup_2025     7               NA        NA    NA    NA      NA
 8         2 followup_2025     8               NA        NA    NA    NA      NA
 9         2 followup_2025     9               NA        NA    NA    NA      NA
10         2 followup_2025     10              NA        NA    NA    NA      NA
# ℹ 302 more rows
# ℹ 8 more variables: eval_type_5 <dbl>, eval_type_6 <dbl>, eval_type_7 <dbl>,
#   eval_type_99 <dbl>, eval_type_1 <dbl>, eval_type_2 <dbl>,
#   eval_type_3 <dbl>, eval_type_4 <dbl>
…
